# MagicaVoxel @ Ephtracy

# group
g shotgun

# material
mtllib shotgun.mtl
usemtl palette

# normals
vn -1 0 0
vn 1 0 0
vn 0 0 1
vn 0 0 -1
vn 0 -1 0
vn 0 1 0

# texcoords
vt 0.0917969 0.5
vt 0.986328 0.5

# verts
v -13 4 1.5
v -13 4 -1.5
v -13 5 1.5
v -13 5 0.5
v -13 5 -0.5
v -13 5 -1.5
v -13 6 0.5
v -13 6 -0.5
v -11 3 0.5
v -11 3 -0.5
v -11 4 0.5
v -11 4 -0.5
v -11 6 0.5
v -11 6 -0.5
v -11 7 0.5
v -11 7 -0.5
v -9 3 1.5
v -9 3 0.5
v -9 3 -0.5
v -9 3 -1.5
v -9 4 1.5
v -9 4 0.5
v -9 4 -0.5
v -9 4 -1.5
v -8 1 0.5
v -8 1 -0.5
v -8 2 1.5
v -8 2 0.5
v -8 2 -0.5
v -8 2 -1.5
v -8 3 1.5
v -8 3 -1.5
v 5 3 1.5
v 5 3 0.5
v 5 3 -0.5
v 5 3 -1.5
v 5 4 1.5
v 5 4 0.5
v 5 4 -0.5
v 5 4 -1.5
v 5 5 1.5
v 5 5 0.5
v 5 5 -0.5
v 5 5 -1.5
v 5 6 1.5
v 5 6 0.5
v 5 6 -0.5
v 5 6 -1.5
v 6 6 0.5
v 6 6 -0.5
v 6 7 0.5
v 6 7 -0.5
v 13 2 1.5
v 13 2 -1.5
v 13 3 1.5
v 13 3 -1.5
v 15 1 1.5
v 15 1 -1.5
v 15 2 1.5
v 15 2 -1.5
v 17 0 1.5
v 17 0 -1.5
v 17 1 1.5
v 17 1 -1.5
v -10 6 0.5
v -10 6 -0.5
v -10 7 0.5
v -10 7 -0.5
v 0 1 0.5
v 0 1 -0.5
v 0 2 1.5
v 0 2 0.5
v 0 2 -0.5
v 0 2 -1.5
v 0 3 0.5
v 0 3 -0.5
v 0 4 1.5
v 0 4 0.5
v 0 4 -0.5
v 0 4 -1.5
v 9 6 0.5
v 9 6 -0.5
v 9 7 0.5
v 9 7 -0.5
v 19 0 1.5
v 19 0 -1.5
v 19 1 1.5
v 19 1 -1.5
v 19 5 1.5
v 19 5 -1.5
v 19 6 1.5
v 19 6 -1.5
v 20 1 1.5
v 20 1 -1.5
v 20 5 1.5
v 20 5 -1.5
v -13 4 1.5
v -13 5 1.5
v -9 3 1.5
v -9 4 1.5
v -8 2 1.5
v -8 3 1.5
v -8 4 1.5
v 0 2 1.5
v 0 4 1.5
v 5 3 1.5
v 5 4 1.5
v 5 5 1.5
v 5 6 1.5
v 10 3 1.5
v 10 6 1.5
v 13 2 1.5
v 13 3 1.5
v 15 1 1.5
v 15 2 1.5
v 17 0 1.5
v 17 1 1.5
v 19 0 1.5
v 19 1 1.5
v 19 5 1.5
v 19 6 1.5
v 20 1 1.5
v 20 5 1.5
v -13 5 0.5
v -13 6 0.5
v -11 3 0.5
v -11 4 0.5
v -11 6 0.5
v -11 7 0.5
v -10 6 0.5
v -10 7 0.5
v -9 3 0.5
v -9 4 0.5
v -8 1 0.5
v -8 2 0.5
v 0 1 0.5
v 0 2 0.5
v 0 3 0.5
v 0 4 0.5
v 5 3 0.5
v 5 4 0.5
v 5 5 0.5
v 5 6 0.5
v 6 6 0.5
v 6 7 0.5
v 9 6 0.5
v 9 7 0.5
v -13 5 -0.5
v -13 6 -0.5
v -11 3 -0.5
v -11 4 -0.5
v -11 6 -0.5
v -11 7 -0.5
v -10 6 -0.5
v -10 7 -0.5
v -9 3 -0.5
v -9 4 -0.5
v -8 1 -0.5
v -8 2 -0.5
v 0 1 -0.5
v 0 2 -0.5
v 0 3 -0.5
v 0 4 -0.5
v 5 3 -0.5
v 5 4 -0.5
v 5 5 -0.5
v 5 6 -0.5
v 6 6 -0.5
v 6 7 -0.5
v 9 6 -0.5
v 9 7 -0.5
v -13 4 -1.5
v -13 5 -1.5
v -9 3 -1.5
v -9 4 -1.5
v -8 2 -1.5
v -8 3 -1.5
v -8 4 -1.5
v 0 2 -1.5
v 0 4 -1.5
v 5 3 -1.5
v 5 4 -1.5
v 5 5 -1.5
v 5 6 -1.5
v 10 3 -1.5
v 10 6 -1.5
v 13 2 -1.5
v 13 3 -1.5
v 15 1 -1.5
v 15 2 -1.5
v 17 0 -1.5
v 17 1 -1.5
v 19 0 -1.5
v 19 1 -1.5
v 19 5 -1.5
v 19 6 -1.5
v 20 1 -1.5
v 20 5 -1.5
v 17 0 1.5
v 19 0 1.5
v 17 0 -1.5
v 19 0 -1.5
v 15 1 1.5
v 17 1 1.5
v 19 1 1.5
v 20 1 1.5
v -8 1 0.5
v 0 1 0.5
v -8 1 -0.5
v 0 1 -0.5
v 15 1 -1.5
v 17 1 -1.5
v 19 1 -1.5
v 20 1 -1.5
v -8 2 1.5
v 0 2 1.5
v 13 2 1.5
v 15 2 1.5
v -8 2 0.5
v 0 2 0.5
v -8 2 -0.5
v 0 2 -0.5
v -8 2 -1.5
v 0 2 -1.5
v 13 2 -1.5
v 15 2 -1.5
v -9 3 1.5
v -8 3 1.5
v 5 3 1.5
v 10 3 1.5
v 13 3 1.5
v -11 3 0.5
v -9 3 0.5
v 0 3 0.5
v 5 3 0.5
v -11 3 -0.5
v -9 3 -0.5
v 0 3 -0.5
v 5 3 -0.5
v -9 3 -1.5
v -8 3 -1.5
v 5 3 -1.5
v 10 3 -1.5
v 13 3 -1.5
v -13 4 1.5
v -9 4 1.5
v 0 4 1.5
v 5 4 1.5
v -11 4 0.5
v -9 4 0.5
v 0 4 0.5
v 5 4 0.5
v -11 4 -0.5
v -9 4 -0.5
v 0 4 -0.5
v 5 4 -0.5
v -13 4 -1.5
v -9 4 -1.5
v 0 4 -1.5
v 5 4 -1.5
v -13 5 1.5
v 5 5 1.5
v 19 5 1.5
v 20 5 1.5
v -13 5 0.5
v 5 5 0.5
v -13 5 -0.5
v 5 5 -0.5
v -13 5 -1.5
v 5 5 -1.5
v 19 5 -1.5
v 20 5 -1.5
v 5 6 1.5
v 10 6 1.5
v 19 6 1.5
v -13 6 0.5
v -11 6 0.5
v -10 6 0.5
v 5 6 0.5
v 6 6 0.5
v 9 6 0.5
v -13 6 -0.5
v -11 6 -0.5
v -10 6 -0.5
v 5 6 -0.5
v 6 6 -0.5
v 9 6 -0.5
v 5 6 -1.5
v 10 6 -1.5
v 19 6 -1.5
v -11 7 0.5
v -10 7 0.5
v 6 7 0.5
v 9 7 0.5
v -11 7 -0.5
v -10 7 -0.5
v 6 7 -0.5
v 9 7 -0.5

# faces
f 3/2/1 2/2/1 1/2/1
f 4/2/1 2/2/1 3/2/1
f 5/2/1 2/2/1 4/2/1
f 6/2/1 2/2/1 5/2/1
f 7/2/1 5/2/1 4/2/1
f 8/2/1 5/2/1 7/2/1
f 11/2/1 10/2/1 9/2/1
f 12/2/1 10/2/1 11/2/1
f 15/2/1 14/2/1 13/2/1
f 16/2/1 14/2/1 15/2/1
f 21/2/1 18/2/1 17/2/1
f 22/2/1 18/2/1 21/2/1
f 23/2/1 20/2/1 19/2/1
f 24/2/1 20/2/1 23/2/1
f 28/1/1 26/1/1 25/1/1
f 29/1/1 26/1/1 28/1/1
f 31/1/1 28/1/1 27/1/1
f 31/1/1 30/1/1 29/1/1
f 31/1/1 29/1/1 28/1/1
f 32/1/1 30/1/1 31/1/1
f 37/2/1 34/2/1 33/2/1
f 38/2/1 34/2/1 37/2/1
f 39/2/1 36/2/1 35/2/1
f 40/2/1 36/2/1 39/2/1
f 45/2/1 42/2/1 41/2/1
f 46/2/1 42/2/1 45/2/1
f 47/2/1 44/2/1 43/2/1
f 48/2/1 44/2/1 47/2/1
f 51/2/1 50/2/1 49/2/1
f 52/2/1 50/2/1 51/2/1
f 55/1/1 54/1/1 53/1/1
f 56/1/1 54/1/1 55/1/1
f 59/1/1 58/1/1 57/1/1
f 60/1/1 58/1/1 59/1/1
f 63/1/1 62/1/1 61/1/1
f 64/1/1 62/1/1 63/1/1
f 65/2/2 66/2/2 67/2/2
f 67/2/2 66/2/2 68/2/2
f 69/1/2 70/1/2 72/1/2
f 72/1/2 70/1/2 73/1/2
f 71/1/2 72/1/2 75/1/2
f 73/1/2 74/1/2 75/1/2
f 72/1/2 73/1/2 75/1/2
f 75/1/2 74/1/2 76/1/2
f 71/1/2 75/1/2 77/1/2
f 77/1/2 75/1/2 78/1/2
f 76/1/2 74/1/2 79/1/2
f 79/1/2 74/1/2 80/1/2
f 81/2/2 82/2/2 83/2/2
f 83/2/2 82/2/2 84/2/2
f 85/1/2 86/1/2 87/1/2
f 87/1/2 86/1/2 88/1/2
f 89/1/2 90/1/2 91/1/2
f 91/1/2 90/1/2 92/1/2
f 93/1/2 94/1/2 95/1/2
f 95/1/2 94/1/2 96/1/2
f 100/2/3 98/2/3 97/2/3
f 102/2/3 100/2/3 99/2/3
f 103/2/3 98/2/3 100/2/3
f 103/2/3 100/2/3 102/2/3
f 104/1/3 102/1/3 101/1/3
f 104/1/3 103/1/3 102/1/3
f 105/2/3 98/2/3 103/2/3
f 105/1/3 103/1/3 104/1/3
f 107/2/3 98/2/3 105/2/3
f 108/2/3 98/2/3 107/2/3
f 110/2/3 107/2/3 106/2/3
f 110/2/3 109/2/3 108/2/3
f 110/2/3 108/2/3 107/2/3
f 111/2/3 109/2/3 110/2/3
f 113/1/3 111/1/3 110/1/3
f 115/1/3 113/1/3 112/1/3
f 117/1/3 115/1/3 114/1/3
f 118/1/3 117/1/3 116/1/3
f 119/1/3 115/1/3 117/1/3
f 119/1/3 117/1/3 118/1/3
f 120/1/3 111/1/3 113/1/3
f 120/1/3 115/1/3 119/1/3
f 120/1/3 113/1/3 115/1/3
f 121/1/3 111/1/3 120/1/3
f 122/1/3 120/1/3 119/1/3
f 123/1/3 120/1/3 122/1/3
f 128/2/3 125/2/3 124/2/3
f 130/2/3 128/2/3 124/2/3
f 130/2/3 129/2/3 128/2/3
f 131/2/3 129/2/3 130/2/3
f 132/2/3 127/2/3 126/2/3
f 133/2/3 127/2/3 132/2/3
f 136/1/3 135/1/3 134/1/3
f 137/1/3 135/1/3 136/1/3
f 140/2/3 139/2/3 138/2/3
f 141/2/3 139/2/3 140/2/3
f 142/2/3 130/2/3 124/2/3
f 143/2/3 130/2/3 142/2/3
f 146/2/3 145/2/3 144/2/3
f 147/2/3 145/2/3 146/2/3
f 148/2/4 149/2/4 152/2/4
f 148/2/4 152/2/4 154/2/4
f 152/2/4 153/2/4 154/2/4
f 154/2/4 153/2/4 155/2/4
f 150/2/4 151/2/4 156/2/4
f 156/2/4 151/2/4 157/2/4
f 158/1/4 159/1/4 160/1/4
f 160/1/4 159/1/4 161/1/4
f 162/2/4 163/2/4 164/2/4
f 164/2/4 163/2/4 165/2/4
f 148/2/4 154/2/4 166/2/4
f 166/2/4 154/2/4 167/2/4
f 168/2/4 169/2/4 170/2/4
f 170/2/4 169/2/4 171/2/4
f 172/2/4 173/2/4 175/2/4
f 174/2/4 175/2/4 177/2/4
f 175/2/4 173/2/4 178/2/4
f 177/2/4 175/2/4 178/2/4
f 176/1/4 177/1/4 179/1/4
f 177/1/4 178/1/4 179/1/4
f 178/2/4 173/2/4 180/2/4
f 179/1/4 178/1/4 180/1/4
f 180/2/4 173/2/4 182/2/4
f 182/2/4 173/2/4 183/2/4
f 181/2/4 182/2/4 185/2/4
f 183/2/4 184/2/4 185/2/4
f 182/2/4 183/2/4 185/2/4
f 185/2/4 184/2/4 186/2/4
f 185/1/4 186/1/4 188/1/4
f 187/1/4 188/1/4 190/1/4
f 189/1/4 190/1/4 192/1/4
f 191/1/4 192/1/4 193/1/4
f 192/1/4 190/1/4 194/1/4
f 193/1/4 192/1/4 194/1/4
f 188/1/4 186/1/4 195/1/4
f 194/1/4 190/1/4 195/1/4
f 190/1/4 188/1/4 195/1/4
f 195/1/4 186/1/4 196/1/4
f 194/1/4 195/1/4 197/1/4
f 197/1/4 195/1/4 198/1/4
f 201/1/5 200/1/5 199/1/5
f 202/1/5 200/1/5 201/1/5
f 209/1/5 208/1/5 207/1/5
f 210/1/5 208/1/5 209/1/5
f 211/1/5 204/1/5 203/1/5
f 212/1/5 204/1/5 211/1/5
f 213/1/5 206/1/5 205/1/5
f 214/1/5 206/1/5 213/1/5
f 219/1/5 216/1/5 215/1/5
f 220/1/5 216/1/5 219/1/5
f 223/1/5 222/1/5 221/1/5
f 224/1/5 222/1/5 223/1/5
f 225/1/5 218/1/5 217/1/5
f 226/1/5 218/1/5 225/1/5
f 233/2/5 228/2/5 227/2/5
f 235/2/5 230/2/5 229/2/5
f 236/2/5 233/2/5 232/2/5
f 237/2/5 228/2/5 233/2/5
f 237/2/5 233/2/5 236/2/5
f 238/2/5 235/2/5 234/2/5
f 239/2/5 230/2/5 235/2/5
f 239/2/5 235/2/5 238/2/5
f 240/2/5 228/2/5 237/2/5
f 241/2/5 228/2/5 240/2/5
f 242/2/5 230/2/5 239/2/5
f 243/1/5 231/1/5 230/1/5
f 243/2/5 230/2/5 242/2/5
f 244/1/5 231/1/5 243/1/5
f 249/2/5 246/2/5 245/2/5
f 250/2/5 246/2/5 249/2/5
f 251/2/5 248/2/5 247/2/5
f 252/2/5 248/2/5 251/2/5
f 253/2/5 249/2/5 245/2/5
f 257/2/5 253/2/5 245/2/5
f 257/2/5 254/2/5 253/2/5
f 258/2/5 254/2/5 257/2/5
f 259/2/5 256/2/5 255/2/5
f 260/2/5 256/2/5 259/2/5
f 261/2/6 262/2/6 265/2/6
f 265/2/6 262/2/6 266/2/6
f 267/2/6 268/2/6 269/2/6
f 269/2/6 268/2/6 270/2/6
f 263/1/6 264/1/6 271/1/6
f 271/1/6 264/1/6 272/1/6
f 273/2/6 274/2/6 279/2/6
f 279/2/6 274/2/6 280/2/6
f 280/2/6 274/2/6 281/2/6
f 276/2/6 277/2/6 282/2/6
f 282/2/6 277/2/6 283/2/6
f 278/2/6 279/2/6 284/2/6
f 279/2/6 280/2/6 284/2/6
f 284/2/6 280/2/6 285/2/6
f 285/2/6 280/2/6 286/2/6
f 281/2/6 274/2/6 287/2/6
f 285/2/6 286/2/6 288/2/6
f 286/2/6 287/2/6 288/2/6
f 287/2/6 274/2/6 289/2/6
f 288/2/6 287/2/6 289/2/6
f 274/1/6 275/1/6 289/1/6
f 289/1/6 275/1/6 290/1/6
f 291/2/6 292/2/6 295/2/6
f 295/2/6 292/2/6 296/2/6
f 293/2/6 294/2/6 297/2/6
f 297/2/6 294/2/6 298/2/6
